<?xml version="1.0" encoding="UTF-8" standalone="no"?>
<svg width="52px" height="52px" viewBox="0 0 52 52" version="1.1" xmlns="http://www.w3.org/2000/svg" xmlns:xlink="http://www.w3.org/1999/xlink">
    <!-- Generator: Sketch 3.8.3 (29802) - http://www.bohemiancoding.com/sketch -->
    <title>phone</title>
    <desc>Created with Sketch.</desc>
    <defs></defs>
    <g id="Главная" stroke="none" stroke-width="1" fill="none" fill-rule="evenodd">
        <g id="phone" transform="translate(1.000000, 1.000000)" stroke="#A7A7A7" stroke-width="2">
            <path d="M24.6357422,49.2714844 C38.2416869,49.2714844 49.2714844,38.2416869 49.2714844,24.6357422 C49.2714844,11.0297975 38.2416869,0 24.6357422,0 C11.0297975,0 0,11.0297975 0,24.6357422 C0,38.2416869 11.0297975,49.2714844 24.6357422,49.2714844 Z" id="circle-copy-6"></path>
            <path d="M31.3948542,37.0550071 C31.0647784,37.0550071 25.7835666,37.3850829 18.3568623,30.1234165 C12.2504611,24.347091 11.5903096,18.2406898 11.4252717,17.0854247 C11.4252717,15.9301596 11.7553475,13.1245157 15.5512185,10.9790234 C16.0463321,10.6489477 17.0365594,10.6489477 17.2015972,10.8139855 C17.3666351,10.9790234 20.6673925,16.4252732 20.6673925,16.590311 C20.8324304,16.7553489 20.8324304,16.9203868 20.8324304,17.0854247 C20.8324304,17.4155004 20.6673925,17.5805383 20.3373168,18.0756519 C20.0072411,18.4057276 19.6771653,18.7358034 19.1820517,19.0658791 C18.6869381,19.3959549 18.3568623,19.7260306 18.0267866,20.0561063 C17.6967109,20.3861821 17.531673,20.7162578 17.531673,20.8812957 C17.531673,21.5414472 18.0267866,23.5219017 21.6576198,26.6576212 C25.2884529,29.7933408 27.1038695,30.783568 27.2689074,30.783568 C27.4339453,30.783568 27.5989831,30.9486059 27.764021,30.9486059 C27.9290589,30.9486059 28.2591346,30.783568 28.5892104,30.4534923 C28.9192861,30.1234165 30.0745512,28.4730378 30.404627,28.1429621 C30.7347027,27.8128863 31.0647784,27.6478484 31.3948542,27.6478484 C31.5598921,27.6478484 31.7249299,27.6478484 31.8899678,27.8128863 C32.0550057,27.9779242 37.5012554,31.1136437 37.6662933,31.1136437 C37.9963691,31.4437195 37.8313312,32.2689088 37.5012554,32.9290603 C36.0159146,36.5598935 32.5501193,37.0550071 31.3948542,37.0550071 Z" id="Shape"></path>
        </g>
    </g>
</svg>