<?xml version="1.0" encoding="UTF-8"?>
<svg width="75px" height="44px" viewBox="0 0 75 44" version="1.1" xmlns="http://www.w3.org/2000/svg" xmlns:xlink="http://www.w3.org/1999/xlink">
    <defs></defs>
    <g id="Главная" stroke="none" stroke-width="1" fill="none" fill-rule="evenodd">
        <g id="cloud" transform="translate(1.000000, 1.000000)" stroke-width="2" stroke="#A7A7A7">
            <g id="cloud_refresh">
                <path d="M35,42 L16,42 C16.0717434,42 2.84217094e-14,41.7703012 2.84217094e-14,29.0502963 C2.84217094e-14,17.6388944 9.9870207,15.0409177 15.685718,16.6930807 C15.7574614,16.7081205 17.7271441,4.17703012 31.6127548,8.45493697 C31.6127548,7.80520501 33.4846056,0 45.3679229,0 C57.1207977,0 61.5023186,9.52994272 61.0536409,16.6930807 C61.5023186,16.8818692 72.8782591,16.7789176 72.8782591,29.0502963 C72.8782591,41.8410983 58.8886033,41.9999989 59,42 L35,42 Z" id="Shape-Copy-3" stroke-linecap="round" stroke-linejoin="round"></path>
                <circle id="Oval" cx="38.5" cy="25.5" r="9.5"></circle>
            </g>
            <polyline id="Path-2" stroke-linecap="round" points="35.5 25 38 27.5 42 23"></polyline>
        </g>
    </g>
</svg>